{
  "type": "service_account",
  "project_id": "pfc2021-305709",
  "private_key_id": "07247c09e6301dc42e9642b2b9a8533430f5dc6f",
  "private_key": "-----BEGIN PRIVATE KEY-----\nMIIEvQIBADANBgkqhkiG9w0BAQEFAASCBKcwggSjAgEAAoIBAQCt/shPHv2lBUAD\nowKkEYgIeCTGdSRWFc1G1jMKr+EJR+lsMSAc3tdFTMeUoOZWEiVf449cgfSk6Vz8\nxUdYGIdr0BDAkgKqmL+XfIajcDCgjGDUDjkbeTurEHhNuSrBeRQQ2xARXD5+ugdm\njG6EPOg6Um+e/wtaVr+MEMhaF//EMoWuPE/IQa1I5fbbgAQ5+UMi3veo3i5g+TPF\nS3W/ws1QP8Y9m3XpwKxU6jBssfWoFFLdUmGGUtcLay5BdESeDE5MMb9heUJvK78h\n8SAA0OIeJ1NGViyhsKpOiJotxf8X2oytHyEaDCexaLw/rnEYQBKn1QxGoqc6Zcma\nfiny2JcNAgMBAAECggEAF+iqQsEJ7pqdlMJaEwx7qlpEB2dCYnfleMXnRqErZZiV\nmTHY7U6ruxCVXjWL4SjmLNp6sSYEZYLRrcQ4DQF13lk9bBDEQAf0T88jOyMn82/G\nwGzh6QYMLnH5bgizONm36acIerI3vjc23B8Q8qfh6123i9wVBclk0czekw64LQ/g\nIDAUh7PtfJeMVIpbCyHRtvNyd9Hzcbl3053Xo5FzhA1FtgOmELz5SECb6JyFhUnh\nekPSmK94DXrWr2uGs5+ob9tkW18Go0OlbIK1V3Opx9RFPBpXwj9qTtfct5jX8BIP\nGqTE3jw2BrxJmKMGxrwHsop44389MnnEqnI3bln6QQKBgQDdW9BvF2+nqyA8SuZM\nerRszokyJpsyXbdVEuEp0M5z5eEWFGAqnzM16C3JIBn8RuUsrtG3RIFGJDBiR8DK\noRiefbBHDGt/ESdjVQM69lLqtFVDbKEBzWObXpBpe0WNtSbEgFqNa+/AOemfO0vT\nYW8teBkRCh859lpxN4tqpXeyIQKBgQDJOXiFhFyVlatvmaKOYteYqdbN5sSTcFH8\nkkYLekJAVBpxBDH0G82bko+u4vJIf2BkODdTwNfXde/JiZtseyEj0S7IqN/TItLj\n4F6gXu894mDZaoqaCI8p9tRtYEKvIbCM7VYjKmf0tU1ijUlYzKruzpgbwgDXb0+x\nssK1gdffbQKBgEHE1dksDXCz15AScPqoOpNZiknsTpBYZ/BO+7eA4tZspsP4qdoA\nEychJPltIEtkhRMRnh3lrMM6XWXWC+Iomzf8ADQb7JSEdD9/MsaCCYDSs8Kks/Hl\nJIM1RZMRnUjNWgdoW39JYqKqkk9NPuo/ONk5pbj6WOzP1W9uIW4+W6IBAoGAA3Hq\ncE69zwnK75QvxkRG8KQnu0qyHtwTa0GN1XB4ZeWKtlieClHXiUxPDW1xPHCB0/Vq\nbRKmH1gzjL3AXXEWNijEpkbN3i2AcspKlHBLpEGV6uL6EH0JBmzlYiH9wkXPYfpG\nOT/mm7fm5UMJ+G04l/INhJwjq4yKTr6CutzIN1kCgYEAlYIUIkDcug2R29nvxy/h\ntrrXGXIhkkZruR7aLOFqEebN+zPKESP9TCEA8eZItpxy0ChGMTHwdp/oKRQiEuBd\nvw7u8To+SfYe77JadzMgReOZMblRcZdoJVZlyg8SCR2Zrr/Dsz5NcMGBbyiMDwWY\n37l+DLU6mndjHQDGe8gb96w=\n-----END PRIVATE KEY-----\n",
  "client_email": "pfcmsd63a@pfc2021-305709.iam.gserviceaccount.com",
  "client_id": "103411655527043526619",
  "auth_uri": "https://accounts.google.com/o/oauth2/auth",
  "token_uri": "https://oauth2.googleapis.com/token",
  "auth_provider_x509_cert_url": "https://www.googleapis.com/oauth2/v1/certs",
  "client_x509_cert_url": "https://www.googleapis.com/robot/v1/metadata/x509/pfcmsd63a%40pfc2021-305709.iam.gserviceaccount.com"
}
